{
  "eventos": [
    {
      "id" : 1,
      "nombre": "AAAAAAAA",
      "descripcion": "AAAAAAA",
      "cupo": 300,
      "precio" : 20,
      "calle" : "AAAAAAAA",
      "imagen" : "aaa"
      },
      {
        "id" : 2,
      "nombre": "BBBBBB",
      "descripcion": "BBBBBBB",
      "cupo": 300,
      "precio" : 20,
      "calle" : "BBBBBB",
      "imagen" : "bbb"
      },
      {
        "id" : 3,
      "nombre": "CCCCCCC",
      "descripcion": "CCCCCCC",
      "cupo": 300,
      "precio" : 20,
      "calle" : "CCCCCCCC",
      "imagen" : "ccc"
      },
	]
}